A foreign company is ready to offer you a nice check for some intels;
3;
"Money does not stink", once said some philosopher;0;0;75;0;0;0;0;-15;+500;-5;
Outrageous !! How dare they ?;0;0;0;0;0;0;0;0;0;3;
You politely decline, but keep they phone number;0;0;0;0;0;0;0;5;0;0;