Your computer just stopped working ...;
2;
Too bad you can't work today, you'd better go home;0;0;40;300;0;10;20;30;-200;-2;
You take some papers and pens and work like in the good old days;0;0;0;0;0;40;50;60;0;2;